R Notebook
…
nodes <- full_join(sources, destinations, by = "label")
#nodes
nodes <- nodes %>% rowid_to_column("id")
#nodes

per_route <- muestra %>%  
  group_by(popular, second_tag) %>%
  summarise(weight = sum(count)) %>% 
  ungroup() %>% arrange(desc(popular )) %>% arrange(desc(weight ))
per_route

## # A tibble: 150 x 3
##    popular    second_tag weight
##    <chr>      <chr>       <dbl>
##  1 jquery     javascript 523835
##  2 javascript jquery     523835
##  3 html       css        346045
##  4 css        html       346045
##  5 javascript html       324217
##  6 html       javascript 324217
##  7 java       android    224896
##  8 android    java       224896
##  9 php        mysql      218983
## 10 mysql      php        218983
## # ... with 140 more rows
…
